project_benches/decode/sim/transcript
# 
# 
# 
# 
# //  ModelSim SE 2021.2 Apr 14 2021 Linux 3.10.0-1160.102.1.el7.x86_64
# //
# //  Copyright 1991-2021 Mentor Graphics Corporation
# //  All Rights Reserved.
# //
# //  ModelSim SE and its associated documentation contain trade
# //  secrets and commercial or financial information that are the property of
# //  Mentor Graphics Corporation and are privileged, confidential,
# //  and exempt from disclosure under the Freedom of Information Act,
# //  5 U.S.C. Section 552. Furthermore, this information
# //  is prohibited from disclosure under the Trade Secrets Act,
# //  18 U.S.C. Section 1905.
# //
# vsim -i -sv_seed 1 "+UVM_TESTNAME=test_top" -permit_unmatched_virtual_intf "+notimingchecks" -suppress 8887 -solvefaildebug -solvefailtestcase -assertdebug -uvmcontrol=all "+uvm_set_config_int=*,enable_transaction_viewing,1" -classdebug -msgmode tran -do " set NoQuitOnFinish 1; run 0; do wave.do " optimized_debug_top_tb 
# Start time: 19:30:26 on Nov 05,2023
# Loading sv_std.std
# Loading work.decode_out_driver_bfm(fast)
# Loading work.decode_out_monitor_bfm(fast)
# Loading work.uvmf_base_pkg_hdl(fast)
# Loading work.decode_out_pkg_hdl(fast)
# Loading mtiUvm.uvm_pkg(fast)
# Loading work.uvmf_base_pkg(fast)
# Loading work.decode_out_pkg(fast)
# Loading work.decode_in_driver_bfm(fast)
# Loading work.decode_in_monitor_bfm(fast)
# Loading work.decode_in_pkg_hdl(fast)
# Loading work.decode_in_pkg(fast)
# Loading work.lc3_prediction_pkg(fast)
# Loading work.decode_env_pkg(fast)
# Loading work.decode_test_pkg(fast)
# Loading mtiUvm.questa_uvm_pkg(fast)
# Loading work.hvl_top(fast)
# Loading work.hdl_top(fast)
# Loading work.decode_in_if_sv_unit(fast)
# Loading work.decode_in_if(fast__1)
# Loading work.decode_in_monitor_bfm_sv_unit(fast)
# Loading work.decode_in_monitor_bfm(fast__1)
# Loading work.decode_in_driver_bfm_sv_unit(fast)
# Loading work.decode_in_driver_bfm(fast__1)
# Loading work.decode_out_if_sv_unit(fast)
# Loading work.decode_out_if(fast__1)
# Loading work.decode_out_monitor_bfm_sv_unit(fast)
# Loading work.decode_out_monitor_bfm(fast__1)
# Loading work.decode_out_driver_bfm_sv_unit(fast)
# Loading work.decode_out_driver_bfm(fast__1)
# Loading work.Decode(fast)
# Loading /mnt/apps/public/COE/mg_apps/modelsim2021.2/uvm-1.1d/linux/uvm_dpi.so
#  set NoQuitOnFinish 1
# 1
#  run 0
# ----------------------------------------------------------------
# UVM-1.1d
# (C) 2007-2013 Mentor Graphics Corporation
# (C) 2007-2013 Cadence Design Systems, Inc.
# (C) 2006-2013 Synopsys, Inc.
# (C) 2011-2013 Cypress Semiconductor Corp.
# ----------------------------------------------------------------
# 
#   ***********       IMPORTANT RELEASE NOTES         ************
# 
#   You are using a version of the UVM library that has been compiled
#   with `UVM_NO_DEPRECATED undefined.
#   See http://www.eda.org/svdb/view.php?id=3313 for more details.
# 
#   You are using a version of the UVM library that has been compiled
#   with `UVM_OBJECT_MUST_HAVE_CONSTRUCTOR undefined.
#   See http://www.eda.org/svdb/view.php?id=3770 for more details.
# 
#       (Specify +UVM_NO_RELNOTES to turn off this notice)
# 
# ----------------------------------------------------------------
# //  UVM Framework 
# //  Version 2022.3
# //  (C) 2013-2022 Siemens Corporation
# //  Digital Industries Software
# //  Siemens EDA
# //  All Rights Reserved.
# ----------------------------------------------------------------
# 
# 
# UVM_INFO verilog_src/questa_uvm_pkg-1.2/src/questa_uvm_pkg.sv(277) @ 0: reporter [Questa UVM] QUESTA_UVM-1.2.3
# UVM_INFO verilog_src/questa_uvm_pkg-1.2/src/questa_uvm_pkg.sv(278) @ 0: reporter [Questa UVM]  questa_uvm::init(all)
# UVM_INFO @ 0: reporter [RNTST] Running test test_top...
# UVM_INFO @ 0: reporter [UVM_CMDLINE_PROC] Applying config setting from the command line: +uvm_set_config_int=*,enable_transaction_viewing,1
#  do wave.do 

run -a
# UVM_INFO @ 125: uvm_test_top.decode_environment.pred [PRED] Transaction Received through analysis_export
# UVM_INFO @ 125: uvm_test_top.decode_environment.pred [IMPLEMENTED_PREDICTOR_MODEL] ******************************************************************************************************
# UVM_INFO @ 125: uvm_test_top.decode_environment.pred [IMPLEMENTED_PREDICTOR_MODEL] ******************************************************************************************************
# UVM_INFO @ 135: uvm_test_top.decode_environment.pred [PRED] Transaction Received through analysis_export
# UVM_INFO @ 135: uvm_test_top.decode_environment.pred [IMPLEMENTED_PREDICTOR_MODEL] ******************************************************************************************************
# UVM_INFO @ 135: uvm_test_top.decode_environment.pred [IMPLEMENTED_PREDICTOR_MODEL] ******************************************************************************************************
# **************************************************************************
# * Questa UVM Transaction Recording Turned ON.                            *
# * recording_detail has been set.                                         *
# *  To turn off, set 'recording_detail' to off:                           *
# * uvm_config_db#(int)            ::set(null, "", "recording_detail", 0); *
# * uvm_config_db#(uvm_bitstream_t)::set(null, "", "recording_detail", 0); *
# **************************************************************************
# UVM_INFO @ 145: uvm_test_top.decode_environment.pred [PRED] Transaction Received through analysis_export
# UVM_INFO @ 145: uvm_test_top.decode_environment.pred [IMPLEMENTED_PREDICTOR_MODEL] ******************************************************************************************************
# UVM_INFO @ 145: uvm_test_top.decode_environment.pred [IMPLEMENTED_PREDICTOR_MODEL] ******************************************************************************************************
# UVM_INFO @ 145: uvm_test_top.decode_environment.agent_in.sequencer@@seq [SEQ] Response:enable_decode:0x1 npc_in:0x4449 instr_dout:0x9d7f op:0x9 en_and:0x1 en_add:0x0 SR1:0x5 SR2:0x2 DR:0x6 PCoffset9:0x172 imm5:0x08 
# UVM_INFO @ 155: uvm_test_top.decode_environment.pred [PRED] Transaction Received through analysis_export
# UVM_INFO @ 155: uvm_test_top.decode_environment.pred [IMPLEMENTED_PREDICTOR_MODEL] ******************************************************************************************************
# UVM_INFO @ 155: uvm_test_top.decode_environment.pred [IMPLEMENTED_PREDICTOR_MODEL] ******************************************************************************************************
# UVM_INFO @ 155: uvm_test_top.decode_environment.sb [SCBD] MATCH! - EXPECTED: ir:0x9d7f npc_out:0x4449 e_control:0x20 w_control:0x0 m_control:0x0 ACTUAL: ir:0x9d7f npc_out:0x4449 e_control:0x20 w_control:0x0 m_control:0x0 
# UVM_INFO @ 155: uvm_test_top.decode_environment.agent_in.sequencer@@seq [SEQ] Response:enable_decode:0x1 npc_in:0xd537 instr_dout:0x5744 op:0x5 en_and:0x1 en_add:0x0 SR1:0x5 SR2:0x4 DR:0x3 PCoffset9:0x009 imm5:0x00 
# UVM_INFO @ 165: uvm_test_top.decode_environment.pred [PRED] Transaction Received through analysis_export
# UVM_INFO @ 165: uvm_test_top.decode_environment.pred [IMPLEMENTED_PREDICTOR_MODEL] ******************************************************************************************************
# UVM_INFO @ 165: uvm_test_top.decode_environment.pred [IMPLEMENTED_PREDICTOR_MODEL] ******************************************************************************************************
# UVM_INFO @ 165: uvm_test_top.decode_environment.sb [SCBD] MATCH! - EXPECTED: ir:0x5744 npc_out:0xd537 e_control:0x11 w_control:0x0 m_control:0x0 ACTUAL: ir:0x5744 npc_out:0xd537 e_control:0x11 w_control:0x0 m_control:0x0 
# UVM_INFO @ 165: uvm_test_top.decode_environment.agent_in.sequencer@@seq [SEQ] Response:enable_decode:0x1 npc_in:0x4443 instr_dout:0x51f9 op:0x5 en_and:0x0 en_add:0x1 SR1:0x7 SR2:0x0 DR:0x0 PCoffset9:0x1a1 imm5:0x19 
# UVM_INFO @ 175: uvm_test_top.decode_environment.pred [PRED] Transaction Received through analysis_export
# UVM_INFO @ 175: uvm_test_top.decode_environment.pred [IMPLEMENTED_PREDICTOR_MODEL] ******************************************************************************************************
# UVM_INFO @ 175: uvm_test_top.decode_environment.pred [IMPLEMENTED_PREDICTOR_MODEL] ******************************************************************************************************
# UVM_INFO @ 175: uvm_test_top.decode_environment.sb [SCBD] MATCH! - EXPECTED: ir:0x51f9 npc_out:0x4443 e_control:0x10 w_control:0x0 m_control:0x0 ACTUAL: ir:0x51f9 npc_out:0x4443 e_control:0x10 w_control:0x0 m_control:0x0 
# UVM_INFO @ 175: uvm_test_top.decode_environment.agent_in.sequencer@@seq [SEQ] Response:enable_decode:0x1 npc_in:0x39ee instr_dout:0x0b99 op:0xe en_and:0x0 en_add:0x0 SR1:0x7 SR2:0x6 DR:0x5 PCoffset9:0x199 imm5:0x17 
# UVM_INFO @ 185: uvm_test_top.decode_environment.pred [PRED] Transaction Received through analysis_export
# UVM_INFO @ 185: uvm_test_top.decode_environment.pred [IMPLEMENTED_PREDICTOR_MODEL] ******************************************************************************************************
# UVM_INFO @ 185: uvm_test_top.decode_environment.pred [IMPLEMENTED_PREDICTOR_MODEL] ******************************************************************************************************
# UVM_INFO @ 185: uvm_test_top.decode_environment.sb [SCBD] MATCH! - EXPECTED: ir:0x0b99 npc_out:0x39ee e_control:0x06 w_control:0x0 m_control:0x0 ACTUAL: ir:0x0b99 npc_out:0x39ee e_control:0x06 w_control:0x0 m_control:0x0 
# UVM_INFO @ 185: uvm_test_top.decode_environment.agent_in.sequencer@@seq [SEQ] Response:enable_decode:0x1 npc_in:0x3a76 instr_dout:0x502a op:0x5 en_and:0x0 en_add:0x0 SR1:0x0 SR2:0x6 DR:0x0 PCoffset9:0x0e7 imm5:0x0a 
# UVM_INFO @ 195: uvm_test_top.decode_environment.pred [PRED] Transaction Received through analysis_export
# UVM_INFO @ 195: uvm_test_top.decode_environment.pred [IMPLEMENTED_PREDICTOR_MODEL] ******************************************************************************************************
# UVM_INFO @ 195: uvm_test_top.decode_environment.pred [IMPLEMENTED_PREDICTOR_MODEL] ******************************************************************************************************
# UVM_INFO @ 195: uvm_test_top.decode_environment.sb [SCBD] MATCH! - EXPECTED: ir:0x502a npc_out:0x3a76 e_control:0x10 w_control:0x0 m_control:0x0 ACTUAL: ir:0x502a npc_out:0x3a76 e_control:0x10 w_control:0x0 m_control:0x0 
# UVM_INFO @ 195: uvm_test_top.decode_environment.agent_in.sequencer@@seq [SEQ] Response:enable_decode:0x1 npc_in:0xdba1 instr_dout:0x5845 op:0x5 en_and:0x1 en_add:0x1 SR1:0x1 SR2:0x5 DR:0x4 PCoffset9:0x09b imm5:0x03 
# UVM_INFO @ 205: uvm_test_top.decode_environment.pred [PRED] Transaction Received through analysis_export
# UVM_INFO @ 205: uvm_test_top.decode_environment.pred [IMPLEMENTED_PREDICTOR_MODEL] ******************************************************************************************************
# UVM_INFO @ 205: uvm_test_top.decode_environment.pred [IMPLEMENTED_PREDICTOR_MODEL] ******************************************************************************************************
# UVM_INFO @ 205: uvm_test_top.decode_environment.sb [SCBD] MATCH! - EXPECTED: ir:0x5845 npc_out:0xdba1 e_control:0x11 w_control:0x0 m_control:0x0 ACTUAL: ir:0x5845 npc_out:0xdba1 e_control:0x11 w_control:0x0 m_control:0x0 
# UVM_INFO @ 205: uvm_test_top.decode_environment.agent_in.sequencer@@seq [SEQ] Response:enable_decode:0x1 npc_in:0xa9c5 instr_dout:0x058c op:0xe en_and:0x1 en_add:0x1 SR1:0x6 SR2:0x1 DR:0x2 PCoffset9:0x18c imm5:0x1e 
# UVM_INFO @ 215: uvm_test_top.decode_environment.pred [PRED] Transaction Received through analysis_export
# UVM_INFO @ 215: uvm_test_top.decode_environment.pred [IMPLEMENTED_PREDICTOR_MODEL] ******************************************************************************************************
# UVM_INFO @ 215: uvm_test_top.decode_environment.pred [IMPLEMENTED_PREDICTOR_MODEL] ******************************************************************************************************
# UVM_INFO @ 215: uvm_test_top.decode_environment.sb [SCBD] MATCH! - EXPECTED: ir:0x058c npc_out:0xa9c5 e_control:0x06 w_control:0x0 m_control:0x0 ACTUAL: ir:0x058c npc_out:0xa9c5 e_control:0x06 w_control:0x0 m_control:0x0 
# UVM_INFO @ 215: uvm_test_top.decode_environment.agent_in.sequencer@@seq [SEQ] Response:enable_decode:0x1 npc_in:0x52e4 instr_dout:0x13c6 op:0x1 en_and:0x0 en_add:0x1 SR1:0x7 SR2:0x6 DR:0x1 PCoffset9:0x0f0 imm5:0x04 
# UVM_INFO @ 225: uvm_test_top.decode_environment.pred [PRED] Transaction Received through analysis_export
# UVM_INFO @ 225: uvm_test_top.decode_environment.pred [IMPLEMENTED_PREDICTOR_MODEL] ******************************************************************************************************
# UVM_INFO @ 225: uvm_test_top.decode_environment.pred [IMPLEMENTED_PREDICTOR_MODEL] ******************************************************************************************************
# UVM_INFO @ 225: uvm_test_top.decode_environment.sb [SCBD] MATCH! - EXPECTED: ir:0x13c6 npc_out:0x52e4 e_control:0x01 w_control:0x0 m_control:0x0 ACTUAL: ir:0x13c6 npc_out:0x52e4 e_control:0x01 w_control:0x0 m_control:0x0 
# UVM_INFO @ 225: uvm_test_top.decode_environment.agent_in.sequencer@@seq [SEQ] Response:enable_decode:0x1 npc_in:0xb316 instr_dout:0x076c op:0xe en_and:0x0 en_add:0x1 SR1:0x4 SR2:0x6 DR:0x3 PCoffset9:0x16c imm5:0x1f 
# UVM_INFO @ 235: uvm_test_top.decode_environment.pred [PRED] Transaction Received through analysis_export
# UVM_INFO @ 235: uvm_test_top.decode_environment.pred [IMPLEMENTED_PREDICTOR_MODEL] ******************************************************************************************************
# UVM_INFO @ 235: uvm_test_top.decode_environment.pred [IMPLEMENTED_PREDICTOR_MODEL] ******************************************************************************************************
# UVM_INFO @ 235: uvm_test_top.decode_environment.sb [SCBD] MATCH! - EXPECTED: ir:0x076c npc_out:0xb316 e_control:0x06 w_control:0x0 m_control:0x0 ACTUAL: ir:0x076c npc_out:0xb316 e_control:0x06 w_control:0x0 m_control:0x0 
# UVM_INFO @ 235: uvm_test_top.decode_environment.agent_in.sequencer@@seq [SEQ] Response:enable_decode:0x1 npc_in:0x50a1 instr_dout:0x14a6 op:0x1 en_and:0x0 en_add:0x0 SR1:0x2 SR2:0x5 DR:0x2 PCoffset9:0x17d imm5:0x06 
# UVM_INFO @ 245: uvm_test_top.decode_environment.pred [PRED] Transaction Received through analysis_export
# UVM_INFO @ 245: uvm_test_top.decode_environment.pred [IMPLEMENTED_PREDICTOR_MODEL] ******************************************************************************************************
# UVM_INFO @ 245: uvm_test_top.decode_environment.pred [IMPLEMENTED_PREDICTOR_MODEL] ******************************************************************************************************
# UVM_INFO @ 245: uvm_test_top.decode_environment.sb [SCBD] MATCH! - EXPECTED: ir:0x14a6 npc_out:0x50a1 e_control:0x00 w_control:0x0 m_control:0x0 ACTUAL: ir:0x14a6 npc_out:0x50a1 e_control:0x00 w_control:0x0 m_control:0x0 
# UVM_INFO @ 245: uvm_test_top.decode_environment.agent_in.sequencer@@seq [SEQ] Response:enable_decode:0x1 npc_in:0xef25 instr_dout:0x5821 op:0x5 en_and:0x0 en_add:0x1 SR1:0x0 SR2:0x5 DR:0x4 PCoffset9:0x119 imm5:0x01 
# UVM_INFO @ 255: uvm_test_top.decode_environment.pred [PRED] Transaction Received through analysis_export
# UVM_INFO @ 255: uvm_test_top.decode_environment.pred [IMPLEMENTED_PREDICTOR_MODEL] ******************************************************************************************************
# UVM_INFO @ 255: uvm_test_top.decode_environment.pred [IMPLEMENTED_PREDICTOR_MODEL] ******************************************************************************************************
# UVM_INFO @ 255: uvm_test_top.decode_environment.sb [SCBD] MATCH! - EXPECTED: ir:0x5821 npc_out:0xef25 e_control:0x10 w_control:0x0 m_control:0x0 ACTUAL: ir:0x5821 npc_out:0xef25 e_control:0x10 w_control:0x0 m_control:0x0 
# UVM_INFO @ 255: uvm_test_top.decode_environment.agent_in.sequencer@@seq [SEQ] Response:enable_decode:0x1 npc_in:0x91cc instr_dout:0x5484 op:0x5 en_and:0x1 en_add:0x0 SR1:0x2 SR2:0x4 DR:0x2 PCoffset9:0x10e imm5:0x16 
# UVM_INFO @ 265: uvm_test_top.decode_environment.pred [PRED] Transaction Received through analysis_export
# UVM_INFO @ 265: uvm_test_top.decode_environment.pred [IMPLEMENTED_PREDICTOR_MODEL] ******************************************************************************************************
# UVM_INFO @ 265: uvm_test_top.decode_environment.pred [IMPLEMENTED_PREDICTOR_MODEL] ******************************************************************************************************
# UVM_INFO @ 265: uvm_test_top.decode_environment.sb [SCBD] MATCH! - EXPECTED: ir:0x5484 npc_out:0x91cc e_control:0x11 w_control:0x0 m_control:0x0 ACTUAL: ir:0x5484 npc_out:0x91cc e_control:0x11 w_control:0x0 m_control:0x0 
# UVM_INFO @ 265: uvm_test_top.decode_environment.agent_in.sequencer@@seq [SEQ] Response:enable_decode:0x1 npc_in:0x74a1 instr_dout:0x5406 op:0x5 en_and:0x1 en_add:0x1 SR1:0x0 SR2:0x6 DR:0x2 PCoffset9:0x053 imm5:0x05 
# UVM_INFO @ 275: uvm_test_top.decode_environment.pred [PRED] Transaction Received through analysis_export
# UVM_INFO @ 275: uvm_test_top.decode_environment.pred [IMPLEMENTED_PREDICTOR_MODEL] ******************************************************************************************************
# UVM_INFO @ 275: uvm_test_top.decode_environment.pred [IMPLEMENTED_PREDICTOR_MODEL] ******************************************************************************************************
# UVM_INFO @ 275: uvm_test_top.decode_environment.sb [SCBD] MATCH! - EXPECTED: ir:0x5406 npc_out:0x74a1 e_control:0x11 w_control:0x0 m_control:0x0 ACTUAL: ir:0x5406 npc_out:0x74a1 e_control:0x11 w_control:0x0 m_control:0x0 
# UVM_INFO @ 275: uvm_test_top.decode_environment.agent_in.sequencer@@seq [SEQ] Response:enable_decode:0x1 npc_in:0x6320 instr_dout:0x1cf7 op:0x1 en_and:0x1 en_add:0x0 SR1:0x3 SR2:0x2 DR:0x6 PCoffset9:0x022 imm5:0x17 
# UVM_INFO @ 285: uvm_test_top.decode_environment.pred [PRED] Transaction Received through analysis_export
# UVM_INFO @ 285: uvm_test_top.decode_environment.pred [IMPLEMENTED_PREDICTOR_MODEL] ******************************************************************************************************
# UVM_INFO @ 285: uvm_test_top.decode_environment.pred [IMPLEMENTED_PREDICTOR_MODEL] ******************************************************************************************************
# UVM_INFO @ 285: uvm_test_top.decode_environment.sb [SCBD] MATCH! - EXPECTED: ir:0x1cf7 npc_out:0x6320 e_control:0x00 w_control:0x0 m_control:0x0 ACTUAL: ir:0x1cf7 npc_out:0x6320 e_control:0x00 w_control:0x0 m_control:0x0 
# UVM_INFO @ 285: uvm_test_top.decode_environment.agent_in.sequencer@@seq [SEQ] Response:enable_decode:0x1 npc_in:0xaedf instr_dout:0x0b3d op:0xe en_and:0x1 en_add:0x0 SR1:0x5 SR2:0x0 DR:0x5 PCoffset9:0x13d imm5:0x03 
# UVM_INFO @ 295: uvm_test_top.decode_environment.pred [PRED] Transaction Received through analysis_export
# UVM_INFO @ 295: uvm_test_top.decode_environment.pred [IMPLEMENTED_PREDICTOR_MODEL] ******************************************************************************************************
# UVM_INFO @ 295: uvm_test_top.decode_environment.pred [IMPLEMENTED_PREDICTOR_MODEL] ******************************************************************************************************
# UVM_INFO @ 295: uvm_test_top.decode_environment.sb [SCBD] MATCH! - EXPECTED: ir:0x0b3d npc_out:0xaedf e_control:0x06 w_control:0x0 m_control:0x0 ACTUAL: ir:0x0b3d npc_out:0xaedf e_control:0x06 w_control:0x0 m_control:0x0 
# UVM_INFO @ 295: uvm_test_top.decode_environment.agent_in.sequencer@@seq [SEQ] Response:enable_decode:0x1 npc_in:0x33e1 instr_dout:0x1569 op:0x1 en_and:0x1 en_add:0x0 SR1:0x5 SR2:0x7 DR:0x2 PCoffset9:0x1d0 imm5:0x09 
# UVM_INFO @ 305: uvm_test_top.decode_environment.pred [PRED] Transaction Received through analysis_export
# UVM_INFO @ 305: uvm_test_top.decode_environment.pred [IMPLEMENTED_PREDICTOR_MODEL] ******************************************************************************************************
# UVM_INFO @ 305: uvm_test_top.decode_environment.pred [IMPLEMENTED_PREDICTOR_MODEL] ******************************************************************************************************
# UVM_INFO @ 305: uvm_test_top.decode_environment.sb [SCBD] MATCH! - EXPECTED: ir:0x1569 npc_out:0x33e1 e_control:0x00 w_control:0x0 m_control:0x0 ACTUAL: ir:0x1569 npc_out:0x33e1 e_control:0x00 w_control:0x0 m_control:0x0 
# UVM_INFO @ 305: uvm_test_top.decode_environment.agent_in.sequencer@@seq [SEQ] Response:enable_decode:0x1 npc_in:0x8159 instr_dout:0x12c1 op:0x1 en_and:0x0 en_add:0x1 SR1:0x3 SR2:0x1 DR:0x1 PCoffset9:0x066 imm5:0x03 
# UVM_INFO @ 315: uvm_test_top.decode_environment.pred [PRED] Transaction Received through analysis_export
# UVM_INFO @ 315: uvm_test_top.decode_environment.pred [IMPLEMENTED_PREDICTOR_MODEL] ******************************************************************************************************
# UVM_INFO @ 315: uvm_test_top.decode_environment.pred [IMPLEMENTED_PREDICTOR_MODEL] ******************************************************************************************************
# UVM_INFO @ 315: uvm_test_top.decode_environment.sb [SCBD] MATCH! - EXPECTED: ir:0x12c1 npc_out:0x8159 e_control:0x01 w_control:0x0 m_control:0x0 ACTUAL: ir:0x12c1 npc_out:0x8159 e_control:0x01 w_control:0x0 m_control:0x0 
# UVM_INFO @ 315: uvm_test_top.decode_environment.agent_in.sequencer@@seq [SEQ] Response:enable_decode:0x1 npc_in:0xd9eb instr_dout:0x50bb op:0x5 en_and:0x0 en_add:0x1 SR1:0x2 SR2:0x0 DR:0x0 PCoffset9:0x0d9 imm5:0x1b 
# UVM_INFO @ 325: uvm_test_top.decode_environment.pred [PRED] Transaction Received through analysis_export
# UVM_INFO @ 325: uvm_test_top.decode_environment.pred [IMPLEMENTED_PREDICTOR_MODEL] ******************************************************************************************************
# UVM_INFO @ 325: uvm_test_top.decode_environment.pred [IMPLEMENTED_PREDICTOR_MODEL] ******************************************************************************************************
# UVM_INFO @ 325: uvm_test_top.decode_environment.sb [SCBD] MATCH! - EXPECTED: ir:0x50bb npc_out:0xd9eb e_control:0x10 w_control:0x0 m_control:0x0 ACTUAL: ir:0x50bb npc_out:0xd9eb e_control:0x10 w_control:0x0 m_control:0x0 
# UVM_INFO @ 325: uvm_test_top.decode_environment.agent_in.sequencer@@seq [SEQ] Response:enable_decode:0x1 npc_in:0xfcc8 instr_dout:0x1345 op:0x1 en_and:0x1 en_add:0x1 SR1:0x5 SR2:0x5 DR:0x1 PCoffset9:0x1ae imm5:0x13 
# UVM_INFO @ 335: uvm_test_top.decode_environment.pred [PRED] Transaction Received through analysis_export
# UVM_INFO @ 335: uvm_test_top.decode_environment.pred [IMPLEMENTED_PREDICTOR_MODEL] ******************************************************************************************************
# UVM_INFO @ 335: uvm_test_top.decode_environment.pred [IMPLEMENTED_PREDICTOR_MODEL] ******************************************************************************************************
# UVM_INFO @ 335: uvm_test_top.decode_environment.sb [SCBD] MATCH! - EXPECTED: ir:0x1345 npc_out:0xfcc8 e_control:0x01 w_control:0x0 m_control:0x0 ACTUAL: ir:0x1345 npc_out:0xfcc8 e_control:0x01 w_control:0x0 m_control:0x0 
# UVM_INFO @ 335: uvm_test_top.decode_environment.agent_in.sequencer@@seq [SEQ] Response:enable_decode:0x1 npc_in:0x9c7b instr_dout:0x933f op:0x9 en_and:0x0 en_add:0x0 SR1:0x4 SR2:0x0 DR:0x1 PCoffset9:0x1b5 imm5:0x14 
# UVM_INFO @ 345: uvm_test_top.decode_environment.pred [PRED] Transaction Received through analysis_export
# UVM_INFO @ 345: uvm_test_top.decode_environment.pred [IMPLEMENTED_PREDICTOR_MODEL] ******************************************************************************************************
# UVM_INFO @ 345: uvm_test_top.decode_environment.pred [IMPLEMENTED_PREDICTOR_MODEL] ******************************************************************************************************
# UVM_INFO @ 345: uvm_test_top.decode_environment.sb [SCBD] MATCH! - EXPECTED: ir:0x933f npc_out:0x9c7b e_control:0x20 w_control:0x0 m_control:0x0 ACTUAL: ir:0x933f npc_out:0x9c7b e_control:0x20 w_control:0x0 m_control:0x0 
# UVM_INFO @ 345: uvm_test_top.decode_environment.agent_in.sequencer@@seq [SEQ] Response:enable_decode:0x1 npc_in:0x5ccb instr_dout:0x50c1 op:0x5 en_and:0x1 en_add:0x1 SR1:0x3 SR2:0x1 DR:0x0 PCoffset9:0x1fd imm5:0x1a 
# UVM_INFO @ 355: uvm_test_top.decode_environment.pred [PRED] Transaction Received through analysis_export
# UVM_INFO @ 355: uvm_test_top.decode_environment.pred [IMPLEMENTED_PREDICTOR_MODEL] ******************************************************************************************************
# UVM_INFO @ 355: uvm_test_top.decode_environment.pred [IMPLEMENTED_PREDICTOR_MODEL] ******************************************************************************************************
# UVM_INFO @ 355: uvm_test_top.decode_environment.sb [SCBD] MATCH! - EXPECTED: ir:0x50c1 npc_out:0x5ccb e_control:0x11 w_control:0x0 m_control:0x0 ACTUAL: ir:0x50c1 npc_out:0x5ccb e_control:0x11 w_control:0x0 m_control:0x0 
# UVM_INFO @ 355: uvm_test_top.decode_environment.agent_in.sequencer@@seq [SEQ] Response:enable_decode:0x1 npc_in:0xde27 instr_dout:0x56c5 op:0x5 en_and:0x1 en_add:0x1 SR1:0x3 SR2:0x5 DR:0x3 PCoffset9:0x131 imm5:0x15 
# UVM_INFO @ 365: uvm_test_top.decode_environment.pred [PRED] Transaction Received through analysis_export
# UVM_INFO @ 365: uvm_test_top.decode_environment.pred [IMPLEMENTED_PREDICTOR_MODEL] ******************************************************************************************************
# UVM_INFO @ 365: uvm_test_top.decode_environment.pred [IMPLEMENTED_PREDICTOR_MODEL] ******************************************************************************************************
# UVM_INFO @ 365: uvm_test_top.decode_environment.sb [SCBD] MATCH! - EXPECTED: ir:0x56c5 npc_out:0xde27 e_control:0x11 w_control:0x0 m_control:0x0 ACTUAL: ir:0x56c5 npc_out:0xde27 e_control:0x11 w_control:0x0 m_control:0x0 
# UVM_INFO @ 365: uvm_test_top.decode_environment.agent_in.sequencer@@seq [SEQ] Response:enable_decode:0x1 npc_in:0xca10 instr_dout:0x0ec6 op:0xe en_and:0x0 en_add:0x0 SR1:0x7 SR2:0x7 DR:0x7 PCoffset9:0x0c6 imm5:0x0c 
# UVM_INFO @ 375: uvm_test_top.decode_environment.pred [PRED] Transaction Received through analysis_export
# UVM_INFO @ 375: uvm_test_top.decode_environment.pred [IMPLEMENTED_PREDICTOR_MODEL] ******************************************************************************************************
# UVM_INFO @ 375: uvm_test_top.decode_environment.pred [IMPLEMENTED_PREDICTOR_MODEL] ******************************************************************************************************
# UVM_INFO @ 375: uvm_test_top.decode_environment.sb [SCBD] MATCH! - EXPECTED: ir:0x0ec6 npc_out:0xca10 e_control:0x06 w_control:0x0 m_control:0x0 ACTUAL: ir:0x0ec6 npc_out:0xca10 e_control:0x06 w_control:0x0 m_control:0x0 
# UVM_INFO @ 375: uvm_test_top.decode_environment.agent_in.sequencer@@seq [SEQ] Response:enable_decode:0x1 npc_in:0xdccf instr_dout:0x0531 op:0xe en_and:0x0 en_add:0x0 SR1:0x1 SR2:0x0 DR:0x2 PCoffset9:0x131 imm5:0x13 
# UVM_INFO @ 385: uvm_test_top.decode_environment.pred [PRED] Transaction Received through analysis_export
# UVM_INFO @ 385: uvm_test_top.decode_environment.pred [IMPLEMENTED_PREDICTOR_MODEL] ******************************************************************************************************
# UVM_INFO @ 385: uvm_test_top.decode_environment.pred [IMPLEMENTED_PREDICTOR_MODEL] ******************************************************************************************************
# UVM_INFO @ 385: uvm_test_top.decode_environment.sb [SCBD] MATCH! - EXPECTED: ir:0x0531 npc_out:0xdccf e_control:0x06 w_control:0x0 m_control:0x0 ACTUAL: ir:0x0531 npc_out:0xdccf e_control:0x06 w_control:0x0 m_control:0x0 
# UVM_INFO @ 385: uvm_test_top.decode_environment.agent_in.sequencer@@seq [SEQ] Response:enable_decode:0x1 npc_in:0x9ca0 instr_dout:0x1f23 op:0x1 en_and:0x0 en_add:0x0 SR1:0x4 SR2:0x5 DR:0x7 PCoffset9:0x0e9 imm5:0x03 
# UVM_INFO @ 395: uvm_test_top.decode_environment.pred [PRED] Transaction Received through analysis_export
# UVM_INFO @ 395: uvm_test_top.decode_environment.pred [IMPLEMENTED_PREDICTOR_MODEL] ******************************************************************************************************
# UVM_INFO @ 395: uvm_test_top.decode_environment.pred [IMPLEMENTED_PREDICTOR_MODEL] ******************************************************************************************************
# UVM_INFO @ 395: uvm_test_top.decode_environment.sb [SCBD] MATCH! - EXPECTED: ir:0x1f23 npc_out:0x9ca0 e_control:0x00 w_control:0x0 m_control:0x0 ACTUAL: ir:0x1f23 npc_out:0x9ca0 e_control:0x00 w_control:0x0 m_control:0x0 
# UVM_INFO verilog_src/uvm-1.1d/src/base/uvm_objection.svh(1267) @ 395: reporter [TEST_DONE] 'run' phase is ready to proceed to the 'extract' phase
# UVM_INFO @ 395: uvm_test_top.decode_environment.sb [SCBD] SCOREBOARD_RESULTS:  PREDICTED_TRANSACTIONS=25 MATCHES=25 MISMATCHES=0
# 
# --- UVM Report Summary ---
# 
# ** Report counts by severity
# UVM_INFO :  140
# UVM_WARNING :    0
# UVM_ERROR :    0
# UVM_FATAL :    0
# ** Report counts by id
# [IMPLEMENTED_PREDICTOR_MODEL]    56
# [PRED]    28
# [Questa UVM]     2
# [RNTST]     1
# [SCBD]    26
# [SEQ]    25
# [TEST_DONE]     1
# [UVM_CMDLINE_PROC]     1
# ** Note: $finish    : /mnt/apps/public/COE/mg_apps/modelsim2021.2/linux/../verilog_src/uvm-1.1d/src/base/uvm_root.svh(430)
#    Time: 395 ns  Iteration: 55  Instance: /hvl_top
# Break in Task uvm_pkg/uvm_root::run_test at /mnt/apps/public/COE/mg_apps/modelsim2021.2/linux/../verilog_src/uvm-1.1d/src/base/uvm_root.svh line 430
# End time: 19:39:53 on Nov 05,2023, Elapsed time: 0:09:27
# Errors: 0, Warnings: 0
